%YAML 1.1
%TAG !u! tag:unity3d.com,2011:
--- !u!114 &11400000
MonoBehaviour:
  m_ObjectHideFlags: 0
  m_CorrespondingSourceObject: {fileID: 0}
  m_PrefabInstance: {fileID: 0}
  m_PrefabAsset: {fileID: 0}
  m_GameObject: {fileID: 0}
  m_Enabled: 1
  m_EditorHideFlags: 0
  m_Script: {fileID: 11500000, guid: e9620f8c34305754d8cc9a7e49e852d9, type: 3}
  m_Name: HH_AreaTitle_EN 1
  m_EditorClassIdentifier: 
  m_LocaleId:
    m_Code: EN
  m_SharedData: {fileID: 11400000, guid: 36f752f3f3e4da34b9ae9948160d7907, type: 2}
  m_Metadata:
    m_Items: []
  m_TableData:
  - m_Id: 2090516480
    m_Localized: Miharashi Shrine
    m_Metadata:
      m_Items: []
  - m_Id: 1880801280
    m_Localized: "Adashino\uFF0EHidden Realm Boundary"
    m_Metadata:
      m_Items: []
  - m_Id: 1918550016
    m_Localized: "Ikai\uFF0EGorge of the Bones"
    m_Metadata:
      m_Items: []
  - m_Id: 1922744320
    m_Localized: "???\uFF0EEerie Mansion"
    m_Metadata:
      m_Items: []
  - m_Id: 1922744321
    m_Localized: "Adashino\uFF0EEnormous Graveyard"
    m_Metadata:
      m_Items: []
  - m_Id: 1922744322
    m_Localized: "Adashino\uFF0EForbidden Area"
    m_Metadata:
      m_Items: []
  references:
    version: 2
    RefIds: []
