%YAML 1.1
%TAG !u! tag:unity3d.com,2011:
--- !u!114 &11400000
MonoBehaviour:
  m_ObjectHideFlags: 0
  m_CorrespondingSourceObject: {fileID: 0}
  m_PrefabInstance: {fileID: 0}
  m_PrefabAsset: {fileID: 0}
  m_GameObject: {fileID: 0}
  m_Enabled: 1
  m_EditorHideFlags: 0
  m_Script: {fileID: 11500000, guid: 5be51871efa6c3e4eae1703925c8f5ac, type: 3}
  m_Name: HH_Mission
  m_EditorClassIdentifier: 
  m_SharedTableData: {fileID: 11400000, guid: 5e7bc02b96f74aa46aa31c6a51ed3efd, type: 2}
  m_Tables:
  - {fileID: 11400000, guid: 60a72337be866824a961f05379c304ea, type: 2}
  - {fileID: 11400000, guid: 3aa340e2626617f4e83726715b14b6af, type: 2}
  - {fileID: 11400000, guid: 7d5b5bda83dd92b44a9ae939741917ba, type: 2}
  m_Extensions: []
  m_Group: String Table
  references:
    version: 2
    RefIds: []
