%YAML 1.1
%TAG !u! tag:unity3d.com,2011:
--- !u!114 &11400000
MonoBehaviour:
  m_ObjectHideFlags: 0
  m_CorrespondingSourceObject: {fileID: 0}
  m_PrefabInstance: {fileID: 0}
  m_PrefabAsset: {fileID: 0}
  m_GameObject: {fileID: 0}
  m_Enabled: 1
  m_EditorHideFlags: 0
  m_Script: {fileID: 11500000, guid: 5b11a58205ec3474ca216360e9fa74a8, type: 3}
  m_Name: HH_WeaponCollection Shared Data
  m_EditorClassIdentifier: 
  m_TableCollectionName: HH_WeaponCollection
  m_TableCollectionNameGuidString: dce030b91b43c9940a7b29ded64ede34
  m_Entries:
  - m_Id: 3596271616
    m_Key: "\u6B66\u58EB\u5200"
    m_Metadata:
      m_Items: []
  - m_Id: 3625631744
    m_Key: "\u62F3\u5957"
    m_Metadata:
      m_Items: []
  - m_Id: 3629826048
    m_Key: "\u942E\u5200"
    m_Metadata:
      m_Items: []
  - m_Id: 3629826049
    m_Key: "\u96D9\u5200"
    m_Metadata:
      m_Items: []
  - m_Id: 3629826050
    m_Key: "\u9B3C\u91D1\u68D2"
    m_Metadata:
      m_Items: []
  - m_Id: 3629826051
    m_Key: "\u96C9\u5200"
    m_Metadata:
      m_Items: []
  m_Metadata:
    m_Items: []
  m_KeyGenerator:
    rid: 8282662320443228372
  references:
    version: 2
    RefIds:
    - rid: 8282662320443228372
      type: {class: DistributedUIDGenerator, ns: UnityEngine.Localization.Tables,
        asm: Unity.Localization}
      data:
        m_CustomEpoch: 1692876374763
