%YAML 1.1
%TAG !u! tag:unity3d.com,2011:
--- !u!114 &11400000
MonoBehaviour:
  m_ObjectHideFlags: 0
  m_CorrespondingSourceObject: {fileID: 0}
  m_PrefabInstance: {fileID: 0}
  m_PrefabAsset: {fileID: 0}
  m_GameObject: {fileID: 0}
  m_Enabled: 1
  m_EditorHideFlags: 0
  m_Script: {fileID: 11500000, guid: e9620f8c34305754d8cc9a7e49e852d9, type: 3}
  m_Name: UITableCollection_JP
  m_EditorClassIdentifier: 
  m_LocaleId:
    m_Code: JP
  m_SharedData: {fileID: 11400000, guid: c3ea136e07a1a944a9b6ad38d8e4e828, type: 2}
  m_Metadata:
    m_Items: []
  m_TableData:
  - m_Id: 694625372913664
    m_Localized: "\u8A71\u3059"
    m_Metadata:
      m_Items: []
  - m_Id: 694625402273792
    m_Localized: "\u30A4\u30F3\u30BF\u30E9\u30AF\u30C8"
    m_Metadata:
      m_Items: []
  - m_Id: 694625402273793
    m_Localized: "\u30B9\u30AD\u30C3\u30D7"
    m_Metadata:
      m_Items: []
  - m_Id: 694625402273794
    m_Localized: Dead
    m_Metadata:
      m_Items: []
  - m_Id: 694625402273795
    m_Localized: Seal
    m_Metadata:
      m_Items: []
  - m_Id: 694625402273796
    m_Localized: Exit
    m_Metadata:
      m_Items: []
  - m_Id: 694625402273797
    m_Localized: "\u7D42\u7D50"
    m_Metadata:
      m_Items: []
  - m_Id: 694625402273798
    m_Localized: "\u653B\u6483\u3057"
    m_Metadata:
      m_Items: []
  - m_Id: 694625409613831
    m_Localized: "\u62FE\u3044"
    m_Metadata:
      m_Items: []
  references:
    version: 2
    RefIds: []
