%YAML 1.1
%TAG !u! tag:unity3d.com,2011:
--- !u!21 &2100000
Material:
  serializedVersion: 8
  m_ObjectHideFlags: 0
  m_CorrespondingSourceObject: {fileID: 0}
  m_PrefabInstance: {fileID: 0}
  m_PrefabAsset: {fileID: 0}
  m_Name: M_EntranceHall_Tree
  m_Shader: {fileID: 4800000, guid: 933532a4fcc9baf4fa0491de14d08ed7, type: 3}
  m_ValidKeywords:
  - _METALLICSPECGLOSSMAP
  - _NORMALMAP
  m_InvalidKeywords: []
  m_LightmapFlags: 4
  m_EnableInstancingVariants: 1
  m_DoubleSidedGI: 0
  m_CustomRenderQueue: -1
  stringTagMap:
    RenderType: Opaque
  disabledShaderPasses: []
  m_SavedProperties:
    serializedVersion: 3
    m_TexEnvs:
    - Texture2D_62ACC27A:
        m_Texture: {fileID: 0}
        m_Scale: {x: 1, y: 1}
        m_Offset: {x: 0, y: 0}
    - _BaseMap:
        m_Texture: {fileID: 2800000, guid: f5fb1cfd09db2c94eba721f1937ca5f1, type: 3}
        m_Scale: {x: 1, y: 1}
        m_Offset: {x: 0, y: 0}
    - _BumpMap:
        m_Texture: {fileID: 2800000, guid: bbba5a23143526640a0cf97983664bad, type: 3}
        m_Scale: {x: 1, y: 1}
        m_Offset: {x: 0, y: 0}
    - _DetailAlbedoMap:
        m_Texture: {fileID: 0}
        m_Scale: {x: 1, y: 1}
        m_Offset: {x: 0, y: 0}
    - _DetailMask:
        m_Texture: {fileID: 0}
        m_Scale: {x: 1, y: 1}
        m_Offset: {x: 0, y: 0}
    - _DetailNormalMap:
        m_Texture: {fileID: 0}
        m_Scale: {x: 1, y: 1}
        m_Offset: {x: 0, y: 0}
    - _EmissionMap:
        m_Texture: {fileID: 0}
        m_Scale: {x: 1, y: 1}
        m_Offset: {x: 0, y: 0}
    - _MainTex:
        m_Texture: {fileID: 2800000, guid: f5fb1cfd09db2c94eba721f1937ca5f1, type: 3}
        m_Scale: {x: 1, y: 1}
        m_Offset: {x: 0, y: 0}
    - _MaskMap:
        m_Texture: {fileID: 2800000, guid: d017cfc3deefbd54da263488a5eea4cf, type: 3}
        m_Scale: {x: 1, y: 1}
        m_Offset: {x: 0, y: 0}
    - _MetallicGlossMap:
        m_Texture: {fileID: 2800000, guid: d017cfc3deefbd54da263488a5eea4cf, type: 3}
        m_Scale: {x: 1, y: 1}
        m_Offset: {x: 0, y: 0}
    - _NormalMap:
        m_Texture: {fileID: 2800000, guid: bbba5a23143526640a0cf97983664bad, type: 3}
        m_Scale: {x: 1, y: 1}
        m_Offset: {x: 0, y: 0}
    - _OcclusionMap:
        m_Texture: {fileID: 0}
        m_Scale: {x: 1, y: 1}
        m_Offset: {x: 0, y: 0}
    - _ParallaxMap:
        m_Texture: {fileID: 0}
        m_Scale: {x: 1, y: 1}
        m_Offset: {x: 0, y: 0}
    - _RGBTexture:
        m_Texture: {fileID: 0}
        m_Scale: {x: 1, y: 1}
        m_Offset: {x: 0, y: 0}
    - _RGBTextureMask:
        m_Texture: {fileID: 0}
        m_Scale: {x: 1, y: 1}
        m_Offset: {x: 0, y: 0}
    - _RGBTextureNormal:
        m_Texture: {fileID: 0}
        m_Scale: {x: 1, y: 1}
        m_Offset: {x: 0, y: 0}
    - _SampleTexture2D_973ec3b5ecdf45628a354d5ec36c29cd_Texture_1:
        m_Texture: {fileID: 2800000, guid: f4495fae5db0744d29286a5d443ae57e, type: 3}
        m_Scale: {x: 1, y: 1}
        m_Offset: {x: 0, y: 0}
    - _SpecGlossMap:
        m_Texture: {fileID: 0}
        m_Scale: {x: 1, y: 1}
        m_Offset: {x: 0, y: 0}
    - _TextureLayerMask:
        m_Texture: {fileID: 0}
        m_Scale: {x: 1, y: 1}
        m_Offset: {x: 0, y: 0}
    - _TextureLayerMaskMap:
        m_Texture: {fileID: 0}
        m_Scale: {x: 1, y: 1}
        m_Offset: {x: 0, y: 0}
    - _TextureLayerNormal:
        m_Texture: {fileID: 0}
        m_Scale: {x: 1, y: 1}
        m_Offset: {x: 0, y: 0}
    - _TextureLayerStrengthTex:
        m_Texture: {fileID: 0}
        m_Scale: {x: 1, y: 1}
        m_Offset: {x: 0, y: 0}
    - _TextureLayerTex:
        m_Texture: {fileID: 0}
        m_Scale: {x: 1, y: 1}
        m_Offset: {x: 0, y: 0}
    - _TriMask:
        m_Texture: {fileID: 0}
        m_Scale: {x: 1, y: 1}
        m_Offset: {x: 0, y: 0}
    - _TriNormal:
        m_Texture: {fileID: 0}
        m_Scale: {x: 1, y: 1}
        m_Offset: {x: 0, y: 0}
    - _TriTexture2D:
        m_Texture: {fileID: 0}
        m_Scale: {x: 1, y: 1}
        m_Offset: {x: 0, y: 0}
    - unity_Lightmaps:
        m_Texture: {fileID: 0}
        m_Scale: {x: 1, y: 1}
        m_Offset: {x: 0, y: 0}
    - unity_LightmapsInd:
        m_Texture: {fileID: 0}
        m_Scale: {x: 1, y: 1}
        m_Offset: {x: 0, y: 0}
    - unity_ShadowMasks:
        m_Texture: {fileID: 0}
        m_Scale: {x: 1, y: 1}
        m_Offset: {x: 0, y: 0}
    m_Ints: []
    m_Floats:
    - BOOLEAN_69D7C25F: 0
    - Vector1_1548FF94: 0
    - Vector1_223D691C: 0
    - Vector1_4E59F8C5: 1
    - Vector1_D6ACAB6D: 1
    - _AlphaClip: 0
    - _BiasNormal: 0
    - _Blend: 0
    - _BumpScale: 1
    - _ClearCoatMask: 0
    - _ClearCoatSmoothness: 0
    - _Cull: 2
    - _Cutoff: 0.5
    - _DITHER: 1
    - _DetailAlbedoMapScale: 1
    - _DetailNormalMapScale: 1
    - _Dither: 0
    - _DstBlend: 0
    - _EnvironmentReflections: 1
    - _GlossMapScale: 0
    - _Glossiness: 0
    - _GlossyReflections: 0
    - _LightDetailpower: 1
    - _MaskBlend: 0
    - _MaskMetallic: 0
    - _MaskNormalBlend: 0
    - _MaskNormalStr: 0
    - _MaskOcclusion: 1
    - _MaskSmoothness: 0
    - _Metallic: 1
    - _NormalStr: 1
    - _OcclusionStrength: 1
    - _Parallax: 0.005
    - _QueueControl: 1
    - _QueueOffset: 0
    - _ReceiveShadows: 1
    - _SATURATION: 0
    - _Smoothness: 0.5
    - _SmoothnessTextureChannel: 0
    - _SpecularHighlights: 1
    - _SrcBlend: 1
    - _Surface: 0
    - _TEXTURELAYER: 0
    - _TEXTUREMASK: 0
    - _TEXTUREREP: 0
    - _TLMetallic: 1
    - _TLNormalStrength: 1
    - _TRIPLANAR: 0
    - _TriMetallic: 0
    - _TriNormalStr: 1
    - _WorkflowMode: 1
    - _ZWrite: 1
    m_Colors:
    - Color_10C97F10: {r: 1, g: 1, b: 1, a: 1}
    - Vector2_37545AC6: {r: 1, g: 1, b: 0, a: 0}
    - Vector2_3A9A1986: {r: 0, g: 0, b: 0, a: 0}
    - Vector2_A54DE9D3: {r: 10, g: 0, b: 0, a: 0}
    - _BMaskColor: {r: 1, g: 1, b: 1, a: 1}
    - _BaseColor: {r: 1, g: 1, b: 1, a: 1}
    - _Color: {r: 1, g: 1, b: 1, a: 1}
    - _DitherDist: {r: 0, g: 5, b: 0, a: 0}
    - _EmissionColor: {r: 0, g: 0, b: 0, a: 1}
    - _GMaskColor: {r: 1, g: 1, b: 1, a: 1}
    - _LocalColorE: {r: 1, g: 1, b: 1, a: 0}
    - _MaskBTile: {r: 1, g: 1, b: 0, a: 0}
    - _MaskGTile: {r: 1, g: 1, b: 0, a: 0}
    - _MaskRTile: {r: 1, g: 1, b: 0, a: 0}
    - _OcclusionRemap: {r: 0, g: 1, b: 0, a: 0}
    - _RMaskColor: {r: 1, g: 1, b: 1, a: 1}
    - _RepScaleMinMax: {r: 0.8, g: 1.2, b: 0, a: 0}
    - _SmoothnessRemap: {r: 0, g: 1, b: 0, a: 0}
    - _SpecColor: {r: 0.19999996, g: 0.19999996, b: 0.19999996, a: 1}
    - _TLOcclusionRemap: {r: 0, g: 1, b: 0, a: 0}
    - _TLSmoothnessRemap: {r: 0, g: 1, b: 0, a: 0}
    - _TextureLayerColor: {r: 1, g: 1, b: 1, a: 0}
    - _TextureLayerStrengthTile: {r: 1, g: 1, b: 0, a: 0}
    - _TextureLayerTile: {r: 1, g: 1, b: 0, a: 0}
    - _Tiling: {r: 1, g: 1, b: 0, a: 0}
    - _TriColorAlpha: {r: 1, g: 1, b: 1, a: 1}
    - _TriOcclusionRemap: {r: 0, g: 1, b: 0, a: 0}
    - _TriSmoothnessRemap: {r: 0, g: 1, b: 0, a: 0}
  m_BuildTextureStacks: []
--- !u!114 &1947941435753233894
MonoBehaviour:
  m_ObjectHideFlags: 11
  m_CorrespondingSourceObject: {fileID: 0}
  m_PrefabInstance: {fileID: 0}
  m_PrefabAsset: {fileID: 0}
  m_GameObject: {fileID: 0}
  m_Enabled: 1
  m_EditorHideFlags: 0
  m_Script: {fileID: 11500000, guid: d0353a89b1f911e48b9e16bdc9f2e058, type: 3}
  m_Name: 
  m_EditorClassIdentifier: 
  version: 5
