%YAML 1.1
%TAG !u! tag:unity3d.com,2011:
--- !u!1045 &1
EditorBuildSettings:
  m_ObjectHideFlags: 0
  serializedVersion: 2
  m_Scenes:
  - enabled: 1
    path: Assets/Scenes/SampleScene.unity
    guid: 99c9720ab356a0642a771bea13969a05
  m_configObjects:
    com.unity.addressableassets: {fileID: 11400000, guid: c4881af96413e8a46a8576edd270e7d5,
      type: 2}
    com.unity.input.settings: {fileID: 11400000, guid: d739a7661f930134ea30e3a581f52eb2,
      type: 2}
    com.unity.localization.settings: {fileID: 11400000, guid: e91245d132705674fa87dece1e132a37,
      type: 2}
