%YAML 1.1
%TAG !u! tag:unity3d.com,2011:
--- !u!114 &-6492567043206298032
MonoBehaviour:
  m_ObjectHideFlags: 11
  m_CorrespondingSourceObject: {fileID: 0}
  m_PrefabInstance: {fileID: 0}
  m_PrefabAsset: {fileID: 0}
  m_GameObject: {fileID: 0}
  m_Enabled: 1
  m_EditorHideFlags: 0
  m_Script: {fileID: 11500000, guid: d0353a89b1f911e48b9e16bdc9f2e058, type: 3}
  m_Name: 
  m_EditorClassIdentifier: 
  version: 5
--- !u!21 &2100000
Material:
  serializedVersion: 8
  m_ObjectHideFlags: 0
  m_CorrespondingSourceObject: {fileID: 0}
  m_PrefabInstance: {fileID: 0}
  m_PrefabAsset: {fileID: 0}
  m_Name: M_Iris_white
  m_Shader: {fileID: 4800000, guid: 933532a4fcc9baf4fa0491de14d08ed7, type: 3}
  m_ValidKeywords:
  - _ALPHATEST_ON
  - _NORMALMAP
  m_InvalidKeywords: []
  m_LightmapFlags: 4
  m_EnableInstancingVariants: 1
  m_DoubleSidedGI: 1
  m_CustomRenderQueue: 2450
  stringTagMap:
    RenderType: TransparentCutout
  disabledShaderPasses: []
  m_SavedProperties:
    serializedVersion: 3
    m_TexEnvs:
    - Texture2D_4DCDDCE9:
        m_Texture: {fileID: 2800000, guid: 82fd219705a8dbe4790af86be7e5db34, type: 3}
        m_Scale: {x: 1, y: 1}
        m_Offset: {x: 0, y: 0}
    - Texture2D_8CC72EBD:
        m_Texture: {fileID: 2800000, guid: 606b1f9b48540b04b88ab0917eac8eb5, type: 3}
        m_Scale: {x: 1, y: 1}
        m_Offset: {x: 0, y: 0}
    - Texture2D_C1B37419:
        m_Texture: {fileID: 2800000, guid: d3c64fad087606548b81c17869d3e19d, type: 3}
        m_Scale: {x: 1, y: 1}
        m_Offset: {x: 0, y: 0}
    - Texture2D_F25D10D6:
        m_Texture: {fileID: 0}
        m_Scale: {x: 1, y: 1}
        m_Offset: {x: 0, y: 0}
    - _AG_ColorNoiseTex:
        m_Texture: {fileID: 0}
        m_Scale: {x: 1, y: 1}
        m_Offset: {x: 0, y: 0}
    - _AlbedoMap:
        m_Texture: {fileID: 2800000, guid: bcba9723f32cbc548be59a383a7d71cc, type: 3}
        m_Scale: {x: 1, y: 1}
        m_Offset: {x: 0, y: 0}
    - _BaseColor:
        m_Texture: {fileID: 0}
        m_Scale: {x: 1, y: 1}
        m_Offset: {x: 0, y: 0}
    - _BaseMap:
        m_Texture: {fileID: 2800000, guid: d72be9089d3df584eb44b1abb70d7b43, type: 3}
        m_Scale: {x: 1, y: 1}
        m_Offset: {x: 0, y: 0}
    - _BumpMap:
        m_Texture: {fileID: 2800000, guid: 606b1f9b48540b04b88ab0917eac8eb5, type: 3}
        m_Scale: {x: 1, y: 1}
        m_Offset: {x: 0, y: 0}
    - _DetailAlbedoMap:
        m_Texture: {fileID: 0}
        m_Scale: {x: 1, y: 1}
        m_Offset: {x: 0, y: 0}
    - _DetailMap:
        m_Texture: {fileID: 0}
        m_Scale: {x: 1, y: 1}
        m_Offset: {x: 0, y: 0}
    - _DetailMask:
        m_Texture: {fileID: 0}
        m_Scale: {x: 1, y: 1}
        m_Offset: {x: 0, y: 0}
    - _DetailMetalicRAOGSmothnessA:
        m_Texture: {fileID: 0}
        m_Scale: {x: 1, y: 1}
        m_Offset: {x: 0, y: 0}
    - _DetailNormalMap:
        m_Texture: {fileID: 0}
        m_Scale: {x: 1, y: 1}
        m_Offset: {x: 0, y: 0}
    - _DissolveGradient:
        m_Texture: {fileID: 0}
        m_Scale: {x: 1, y: 1}
        m_Offset: {x: 0, y: 0}
    - _DissolveTexture:
        m_Texture: {fileID: 0}
        m_Scale: {x: 1, y: 1}
        m_Offset: {x: 0, y: 0}
    - _EmissionMap:
        m_Texture: {fileID: 0}
        m_Scale: {x: 1, y: 1}
        m_Offset: {x: 0, y: 0}
    - _GlossMap:
        m_Texture: {fileID: 0}
        m_Scale: {x: 1, y: 1}
        m_Offset: {x: 0, y: 0}
    - _LayerAlbedoMap:
        m_Texture: {fileID: 0}
        m_Scale: {x: 1, y: 1}
        m_Offset: {x: 0, y: 0}
    - _LayerAlbedoMap_Ext_1:
        m_Texture: {fileID: 0}
        m_Scale: {x: 1, y: 1}
        m_Offset: {x: 0, y: 0}
    - _LayerAlbedoMap_Ext_2:
        m_Texture: {fileID: 0}
        m_Scale: {x: 1, y: 1}
        m_Offset: {x: 0, y: 0}
    - _LayerEmissionMap:
        m_Texture: {fileID: 0}
        m_Scale: {x: 1, y: 1}
        m_Offset: {x: 0, y: 0}
    - _LayerEmissionMap_Ext_1:
        m_Texture: {fileID: 0}
        m_Scale: {x: 1, y: 1}
        m_Offset: {x: 0, y: 0}
    - _LayerEmissionMap_Ext_2:
        m_Texture: {fileID: 0}
        m_Scale: {x: 1, y: 1}
        m_Offset: {x: 0, y: 0}
    - _LayerMaskMap:
        m_Texture: {fileID: 0}
        m_Scale: {x: 1, y: 1}
        m_Offset: {x: 0, y: 0}
    - _LayerMaskMap_Ext_1:
        m_Texture: {fileID: 0}
        m_Scale: {x: 1, y: 1}
        m_Offset: {x: 0, y: 0}
    - _LayerMaskMap_Ext_2:
        m_Texture: {fileID: 0}
        m_Scale: {x: 1, y: 1}
        m_Offset: {x: 0, y: 0}
    - _LayerNormalMap:
        m_Texture: {fileID: 0}
        m_Scale: {x: 1, y: 1}
        m_Offset: {x: 0, y: 0}
    - _LayerNormalMap_Ext_1:
        m_Texture: {fileID: 0}
        m_Scale: {x: 1, y: 1}
        m_Offset: {x: 0, y: 0}
    - _LayerNormalMap_Ext_2:
        m_Texture: {fileID: 0}
        m_Scale: {x: 1, y: 1}
        m_Offset: {x: 0, y: 0}
    - _LayerTextureMask:
        m_Texture: {fileID: 0}
        m_Scale: {x: 1, y: 1}
        m_Offset: {x: 0, y: 0}
    - _MainTex:
        m_Texture: {fileID: 0}
        m_Scale: {x: 1, y: 1}
        m_Offset: {x: 0, y: 0}
    - _MaskMap:
        m_Texture: {fileID: 0}
        m_Scale: {x: 1, y: 1}
        m_Offset: {x: 0, y: 0}
    - _MetalicRAOGSmothnessA:
        m_Texture: {fileID: 0}
        m_Scale: {x: 1, y: 1}
        m_Offset: {x: 0, y: 0}
    - _MetallicGlossMap:
        m_Texture: {fileID: 0}
        m_Scale: {x: 1, y: 1}
        m_Offset: {x: 0, y: 0}
    - _NoiseTex:
        m_Texture: {fileID: 0}
        m_Scale: {x: 1, y: 1}
        m_Offset: {x: 0, y: 0}
    - _NormalMap:
        m_Texture: {fileID: 2800000, guid: 606b1f9b48540b04b88ab0917eac8eb5, type: 3}
        m_Scale: {x: 1, y: 1}
        m_Offset: {x: 0, y: 0}
    - _OcclusionMap:
        m_Texture: {fileID: 0}
        m_Scale: {x: 1, y: 1}
        m_Offset: {x: 0, y: 0}
    - _ParallaxMap:
        m_Texture: {fileID: 0}
        m_Scale: {x: 1, y: 1}
        m_Offset: {x: 0, y: 0}
    - _RainDropTexture:
        m_Texture: {fileID: 0}
        m_Scale: {x: 1, y: 1}
        m_Offset: {x: 0, y: 0}
    - _ShadowOffset:
        m_Texture: {fileID: 0}
        m_Scale: {x: 1, y: 1}
        m_Offset: {x: 0, y: 0}
    - _SnowAlbedo:
        m_Texture: {fileID: 0}
        m_Scale: {x: 1, y: 1}
        m_Offset: {x: 0, y: 0}
    - _SnowMaskMap:
        m_Texture: {fileID: 0}
        m_Scale: {x: 1, y: 1}
        m_Offset: {x: 0, y: 0}
    - _SnowNormal:
        m_Texture: {fileID: 0}
        m_Scale: {x: 1, y: 1}
        m_Offset: {x: 0, y: 0}
    - _SnowTraxAlbedo:
        m_Texture: {fileID: 0}
        m_Scale: {x: 1, y: 1}
        m_Offset: {x: 0, y: 0}
    - _SnowTraxMaskMap:
        m_Texture: {fileID: 0}
        m_Scale: {x: 1, y: 1}
        m_Offset: {x: 0, y: 0}
    - _SnowTraxNormal:
        m_Texture: {fileID: 0}
        m_Scale: {x: 1, y: 1}
        m_Offset: {x: 0, y: 0}
    - _SpecGlossMap:
        m_Texture: {fileID: 0}
        m_Scale: {x: 1, y: 1}
        m_Offset: {x: 0, y: 0}
    - _SpecularMap:
        m_Texture: {fileID: 0}
        m_Scale: {x: 1, y: 1}
        m_Offset: {x: 0, y: 0}
    - _TintMask:
        m_Texture: {fileID: 0}
        m_Scale: {x: 1, y: 1}
        m_Offset: {x: 0, y: 0}
    - _TranslucencyMap:
        m_Texture: {fileID: 0}
        m_Scale: {x: 1, y: 1}
        m_Offset: {x: 0, y: 0}
    - _TraxAlbedo:
        m_Texture: {fileID: 0}
        m_Scale: {x: 1, y: 1}
        m_Offset: {x: 0, y: 0}
    - _TraxPackedNormal:
        m_Texture: {fileID: 0}
        m_Scale: {x: 1, y: 1}
        m_Offset: {x: 0, y: 0}
    - _WindParticulate:
        m_Texture: {fileID: 0}
        m_Scale: {x: 1, y: 1}
        m_Offset: {x: 0, y: 0}
    - unity_Lightmaps:
        m_Texture: {fileID: 0}
        m_Scale: {x: 1, y: 1}
        m_Offset: {x: 0, y: 0}
    - unity_LightmapsInd:
        m_Texture: {fileID: 0}
        m_Scale: {x: 1, y: 1}
        m_Offset: {x: 0, y: 0}
    - unity_ShadowMasks:
        m_Texture: {fileID: 0}
        m_Scale: {x: 1, y: 1}
        m_Offset: {x: 0, y: 0}
    m_Ints: []
    m_Floats:
    - FAR_CULL: 1
    - TOUCH_BEND: 1
    - Vector1_1932D84A: 1
    - Vector1_3E6E2126: 1
    - Vector1_96BB6921: 0.5
    - Vector1_FA24C6E4: 3
    - _AlbedoBrightness: 0
    - _AlbedoContrast: 1
    - _AlphaClip: 1
    - _AlphaThreshold: 0.5
    - _AmbientOcclusionPower: 1
    - _AutoNormalStrength: 0.5
    - _BAKERY_BICUBIC: 0
    - _BAKERY_LMSPEC: 0
    - _BAKERY_SHNONLINEAR: 1
    - _BAKERY_VERTEXLMMASK: 0
    - _BAKERY_VOLROTATION: 0
    - _BAKERY_VOLUME: 0
    - _Blend: 0
    - _BumpScale: 1
    - _ClearCoatMask: 0
    - _ClearCoatSmoothness: 0
    - _Cull: 0
    - _CullFarDistance: 10
    - _CullFarStart: 50
    - _CullMode: 0
    - _Cutoff: 0.5
    - _DebugSampleCountThreshold: 12
    - _DetailAlbedoMapScale: 1
    - _DetailAlbedoStrength: 1
    - _DetailNormalMapScale: 1
    - _DetailNormalStrength: 1
    - _DetailSmoothnessStrength: 1
    - _DetailStochasticContrast: 0.7
    - _DetailStochasticScale: 0.5
    - _DetailTriplanarContrast: 4
    - _DetailTriplanarSpace: 0
    - _DetailUVSource: 0
    - _DissolveAmount: 0
    - _DissolveColoration: 1
    - _DissolveEdgeContrast: 10
    - _DissolveEmissiveStr: 0
    - _DissolveEnabled: 0
    - _DoubleSidedNormalMode: 1
    - _Drag: 1
    - _DstBlend: 0
    - _EnableGeometrySpecAA: 0
    - _EnvironmentReflections: 1
    - _FlatShadingBlend: 1
    - _FuzzyShadingOn: 0
    - _GlossMapScale: 0
    - _Glossiness: 0
    - _GlossyReflections: 0
    - _InitialBend: 1
    - _IsConverted: 1
    - _LayerAlbedoBrightness: 0
    - _LayerAlbedoBrightness_Ext_1: 0
    - _LayerAlbedoBrightness_Ext_2: 0
    - _LayerAlbedoContrast: 1
    - _LayerAlbedoContrast_Ext_1: 1
    - _LayerAlbedoContrast_Ext_2: 1
    - _LayerAlbedoStrength: 1
    - _LayerAlbedoStrength_Ext_1: 1
    - _LayerAlbedoStrength_Ext_2: 1
    - _LayerAngleMin: 0.1
    - _LayerAngleMin_Ext_1: 0.1
    - _LayerAngleMin_Ext_2: 0.1
    - _LayerBlendContrast: 2
    - _LayerBlendContrast_Ext_1: 2
    - _LayerBlendContrast_Ext_2: 2
    - _LayerBlendMode: 0
    - _LayerBlendMode_Ext_1: 0
    - _LayerBlendMode_Ext_2: 0
    - _LayerFalloff: 8
    - _LayerFalloff_Ext_1: 8
    - _LayerFalloff_Ext_2: 8
    - _LayerFuzzyShadingOn: 0
    - _LayerFuzzyShadingOn_Ext_1: 0
    - _LayerFuzzyShadingOn_Ext_2: 0
    - _LayerHeight: 0
    - _LayerHeightContrast: 0.5
    - _LayerHeightContrast_Ext_1: 0.5
    - _LayerHeightContrast_Ext_2: 0.5
    - _LayerHeight_Ext_1: 0
    - _LayerHeight_Ext_2: 0
    - _LayerInvertHeight: 0
    - _LayerInvertHeight_Ext_1: 0
    - _LayerInvertHeight_Ext_2: 0
    - _LayerMetallic: 0
    - _LayerMetallic_Ext_1: 0
    - _LayerMetallic_Ext_2: 0
    - _LayerMicroShadowStrength: 0
    - _LayerMicroShadowStrength_Ext_1: 0
    - _LayerMicroShadowStrength_Ext_2: 0
    - _LayerNoiseAmplitude: 0.5
    - _LayerNoiseAmplitude_Ext_1: 0.5
    - _LayerNoiseAmplitude_Ext_2: 0.5
    - _LayerNoiseCenter: 0
    - _LayerNoiseCenter_Ext_1: 0
    - _LayerNoiseCenter_Ext_2: 0
    - _LayerNoiseFrequency: 1
    - _LayerNoiseFrequency_Ext_1: 1
    - _LayerNoiseFrequency_Ext_2: 1
    - _LayerNoiseOffset: 0
    - _LayerNoiseOffset_Ext_1: 0
    - _LayerNoiseOffset_Ext_2: 0
    - _LayerNormalStrength: 1
    - _LayerNormalStrength_Ext_1: 1
    - _LayerNormalStrength_Ext_2: 1
    - _LayerScale: 3
    - _LayerScale_Ext_1: 3
    - _LayerScale_Ext_2: 3
    - _LayerSmoothness: 0
    - _LayerSmoothnessStrength: 1
    - _LayerSmoothnessStrength_Ext_1: 1
    - _LayerSmoothnessStrength_Ext_2: 1
    - _LayerSmoothness_Ext_1: 0
    - _LayerSmoothness_Ext_2: 0
    - _LayerStochasticContrast: 0.7
    - _LayerStochasticContrast_Ext_1: 0.7
    - _LayerStochasticContrast_Ext_2: 0.7
    - _LayerStochasticScale: 0.5
    - _LayerStochasticScale_Ext_1: 0.5
    - _LayerStochasticScale_Ext_2: 0.5
    - _LayerStrength: 1
    - _LayerStrength_Ext_1: 1
    - _LayerStrength_Ext_2: 1
    - _LayerTessStrength: 1
    - _LayerTessStrength_Ext_1: 1
    - _LayerTessStrength_Ext_2: 1
    - _LayerTextureMaskUVMode: 0
    - _LayerTriplanarContrast: 4
    - _LayerTriplanarContrast_Ext_1: 4
    - _LayerTriplanarContrast_Ext_2: 4
    - _LayerTriplanarSpace: 0
    - _LayerTriplanarSpace_Ext_1: 0
    - _LayerTriplanarSpace_Ext_2: 0
    - _LayerUVSource: 0
    - _LayerUVSource_Ext_1: 0
    - _LayerUVSource_Ext_2: 0
    - _LayerVertexNormalBlend: 0.8
    - _LayerVertexNormalBlend_Ext_1: 0.8
    - _LayerVertexNormalBlend_Ext_2: 0.8
    - _LightmapMode: 2
    - _Metallic: 0
    - _MetallicPower: 0
    - _MicroShadowStrength: 0
    - _NormalStrength: 0.5
    - _OcclusionStrength: 1
    - _Parallax: 0.005
    - _ParallaxHeight: 0
    - _Porosity: 0.4
    - _PuddleAmount: 0
    - _PuddleAngleMin: 0.1
    - _PuddleFalloff: 12
    - _PuddleMode: 0
    - _PuddleNoiseAmplitude: 0.5
    - _PuddleNoiseCenter: 0
    - _PuddleNoiseFrequency: 1
    - _PuddleNoiseOffset: 0
    - _QueueControl: 0
    - _QueueOffset: 0
    - _RainMode: 0
    - _RandomDarkening: 0.5
    - _ReceiveShadows: 1
    - _RootAmbient: 0.5
    - _Shininess: 0.078125
    - _ShiverDrag: 0.05
    - _Smoothness: 0.05
    - _SmoothnessPower: 0
    - _SmoothnessTextureChannel: 0
    - _SnowAmount: 1
    - _SnowAngle: 1
    - _SnowContrast: 1.5
    - _SnowMode: 0
    - _SnowNoiseAmp: 1
    - _SnowNoiseFreq: 1
    - _SnowNoiseOffset: 0
    - _SnowStochasticContrast: 0.7
    - _SnowStochasticScale: 1
    - _SnowVertexHeight: 0.05
    - _SpecularAAScreenSpaceVariance: 0.2
    - _SpecularAAThreshold: 0.1
    - _SpecularHighlights: 1
    - _Speed: 0
    - _SquashAmount: 1
    - _SrcBlend: 1
    - _Stiffness: 1
    - _StochasticContrast: 0.7
    - _StochasticScale: 0.5
    - _Surface: 0
    - _Trax: 0
    - _TraxDisplacementDepth: 0.1
    - _TraxDisplacementStrength: 0.2
    - _TraxHeightContrast: 0.5
    - _TraxInterpContrast: 0.9
    - _TraxMipBias: 3
    - _TraxNormalStrength: 1
    - _TriplanarContrast: 4
    - _TriplanarSpace: 0
    - _USEBAKERY: 0
    - _UVSource: 0
    - _WavesSpeed: 1
    - _Wetness: 0
    - _WetnessAmount: 0
    - _WetnessAngleMin: -1
    - _WetnessFalloff: 1
    - _WetnessMax: 1
    - _WetnessMin: 0
    - _WetnessMode: 0
    - _WetnessShoreline: -99999
    - _Wind: 0
    - _WindAffectDistance: 50
    - _WindNormalInfluence: 0
    - _WindParticulateOcclusionStrength: 1
    - _WindParticulatePower: 1
    - _WindParticulateRotation: 0
    - _WindParticulateSpace: 0
    - _WindParticulateSpeed: 1
    - _WindParticulateStrength: 2
    - _WindParticulateTextureHeight: 1
    - _WorkflowMode: 1
    - _ZWrite: 1
    m_Colors:
    - Color_7A5E2898: {r: 0, g: 0, b: 0, a: 0}
    - Color_8AD29B40: {r: 0, g: 0.34901962, b: 0.18032679, a: 0}
    - Color_91C777A5: {r: 0.7617922, g: 0.7208526, b: 0.9150943, a: 0}
    - Vector3_A51EAF08: {r: 0.2, g: 0.2, b: 0.2, a: 0}
    - _AColor: {r: 0.5, g: 0.5, b: 0.5, a: 1}
    - _AG_ColorNoiseArea: {r: 0, g: 0, b: 0, a: 1}
    - _AORemap: {r: 0, g: 1, b: 0, a: 0}
    - _BColor: {r: 0.5, g: 0.5, b: 0.5, a: 1}
    - _BaseColor: {r: 1, g: 1, b: 1, a: 1}
    - _Color: {r: 1, g: 1, b: 1, a: 1}
    - _ColorB: {r: 1, g: 1, b: 1, a: 1}
    - _EmissionColor: {r: 0, g: 0, b: 0, a: 1}
    - _FuzzyShadingColor: {r: 1, g: 1, b: 1, a: 1}
    - _FuzzyShadingParams: {r: 0.3, g: 1, b: 1.5, a: 1}
    - _GColor: {r: 0.5, g: 0.5, b: 0.5, a: 1}
    - _HeightRemap: {r: 0, g: 1, b: 0, a: 0}
    - _LODDebugColor: {r: 1, g: 1, b: 1, a: 1}
    - _LayerAORemap: {r: 0, g: 1, b: 0, a: 0}
    - _LayerAORemap_Ext_1: {r: 0, g: 1, b: 0, a: 0}
    - _LayerAORemap_Ext_2: {r: 0, g: 1, b: 0, a: 0}
    - _LayerBlendTint: {r: 1, g: 1, b: 1, a: 1}
    - _LayerBlendTint_Ext_1: {r: 1, g: 1, b: 1, a: 1}
    - _LayerBlendTint_Ext_2: {r: 1, g: 1, b: 1, a: 1}
    - _LayerEmissionColor: {r: 0, g: 0, b: 0, a: 0}
    - _LayerEmissionColor_Ext_1: {r: 0, g: 0, b: 0, a: 0}
    - _LayerEmissionColor_Ext_2: {r: 0, g: 0, b: 0, a: 0}
    - _LayerFuzzyShadingColor: {r: 1, g: 1, b: 1, a: 1}
    - _LayerFuzzyShadingColor_Ext_1: {r: 1, g: 1, b: 1, a: 1}
    - _LayerFuzzyShadingColor_Ext_2: {r: 1, g: 1, b: 1, a: 1}
    - _LayerFuzzyShadingParams: {r: 0.3, g: 1, b: 1.5, a: 1}
    - _LayerFuzzyShadingParams_Ext_1: {r: 0.3, g: 1, b: 1.5, a: 1}
    - _LayerFuzzyShadingParams_Ext_2: {r: 0.3, g: 1, b: 1.5, a: 1}
    - _LayerHeightRemap: {r: 0, g: 1, b: 0, a: 0}
    - _LayerHeightRemap_Ext_1: {r: 0, g: 1, b: 0, a: 0}
    - _LayerHeightRemap_Ext_2: {r: 0, g: 1, b: 0, a: 0}
    - _LayerMetallicRemap: {r: 0, g: 1, b: 0, a: 0}
    - _LayerMetallicRemap_Ext_1: {r: 0, g: 1, b: 0, a: 0}
    - _LayerMetallicRemap_Ext_2: {r: 0, g: 1, b: 0, a: 0}
    - _LayerSmoothnessRemap: {r: 0, g: 1, b: 0, a: 0}
    - _LayerSmoothnessRemap_Ext_1: {r: 0, g: 1, b: 0, a: 0}
    - _LayerSmoothnessRemap_Ext_2: {r: 0, g: 1, b: 0, a: 0}
    - _LayerTint: {r: 1, g: 1, b: 1, a: 1}
    - _LayerTint_Ext_1: {r: 1, g: 1, b: 1, a: 1}
    - _LayerTint_Ext_2: {r: 1, g: 1, b: 1, a: 1}
    - _LayerWeightOverDistance: {r: 1, g: 1, b: 1, a: 1}
    - _LayerWeightOverDistance_Ext_1: {r: 1, g: 1, b: 1, a: 1}
    - _LayerWeightOverDistance_Ext_2: {r: 1, g: 1, b: 1, a: 1}
    - _MetallicRemap: {r: 0, g: 1, b: 0, a: 0}
    - _PuddleColor: {r: 0.19999996, g: 0.19999996, b: 0.19999996, a: 0.7}
    - _RColor: {r: 0.5, g: 0.5, b: 0.5, a: 1}
    - _RainIntensityScale: {r: 1, g: 25, b: 0, a: 0}
    - _SmoothnessRemap: {r: 0, g: 1, b: 0, a: 0}
    - _SnowTint: {r: 1, g: 1, b: 1, a: 1}
    - _SnowTraxTint: {r: 1, g: 1, b: 1, a: 1}
    - _SnowWorldFade: {r: 100, g: 50, b: 0, a: 0}
    - _SpecColor: {r: 0.19999996, g: 0.19999996, b: 0.19999996, a: 1}
    - _Tint: {r: 1, g: 1, b: 1, a: 1}
    - _TraxTint: {r: 1, g: 1, b: 1, a: 1}
    - _TreeInstanceColor: {r: 1, g: 1, b: 1, a: 1}
    - _TreeInstanceScale: {r: 1, g: 1, b: 1, a: 1}
    - _WindParticulateAngleMask: {r: -1, g: -1, b: 1, a: 1}
    - _WindParticulateColor: {r: 1, g: 1, b: 1, a: 1}
    - _WindParticulateEmissive: {r: 0, g: 0, b: 0, a: 0}
    - _WindParticulateWorldHeightMask: {r: -99999, g: -99999, b: 99999, a: 99999}
  m_BuildTextureStacks: []
